[gd_resource type="TileSet" load_steps=3 format=2]

[ext_resource path="res://Sprites/sand.png" type="Texture" id=1]

[sub_resource type="RectangleShape2D" id=1]

custom_solver_bias = 0.0
extents = Vector2( 16, 16 )

[resource]

0/name = "Sand"
0/texture = ExtResource( 1 )
0/tex_offset = Vector2( 0, 0 )
0/modulate = Color( 1, 1, 1, 1 )
0/region = Rect2( 0, 0, 32, 32 )
0/is_autotile = false
0/occluder_offset = Vector2( 16, 16 )
0/navigation_offset = Vector2( 16, 16 )
0/shapes = [ {
"autotile_coord": Vector2( 0, 0 ),
"one_way": false,
"shape": SubResource( 1 ),
"shape_transform": Transform2D( 1, 0, 0, 1, 16, 16 )
} ]

