[gd_scene load_steps=6 format=2]

[ext_resource path="res://Scripts/Bullet.gd" type="Script" id=1]
[ext_resource path="res://Sprites/boss/bullet1.png" type="Texture" id=2]

[sub_resource type="RectangleShape2D" id=1]

custom_solver_bias = 0.0
extents = Vector2( 2, 2.33333 )

[sub_resource type="RectangleShape2D" id=2]

custom_solver_bias = 0.0
extents = Vector2( 6.47586, 6.76072 )

[sub_resource type="ParticlesMaterial" id=3]

render_priority = 0
trail_divisor = 1
emission_shape = 1
emission_sphere_radius = 2.0
flag_align_y = false
flag_rotate_y = false
flag_disable_z = true
spread = 180.0
flatness = 0.0
gravity = Vector3( 0, 98, 0 )
initial_velocity = 4.31
initial_velocity_random = 0.0
angular_velocity = 5.0
angular_velocity_random = 0.0
orbit_velocity = 0.0
orbit_velocity_random = 0.0
linear_accel = 0.0
linear_accel_random = 0.0
radial_accel = 0.0
radial_accel_random = 0.0
tangential_accel = 0.0
tangential_accel_random = 0.0
damping = 0.0
damping_random = 0.0
angle = 0.0
angle_random = 0.0
scale = 2.0
scale_random = 0.0
color = Color( 0.46875, 0.410628, 0.0311279, 1 )
hue_variation = 0.0
hue_variation_random = 0.0
anim_speed = 0.0
anim_speed_random = 0.0
anim_offset = 0.0
anim_offset_random = 0.0
anim_loop = false
_sections_unfolded = [ "Angular Velocity", "Color", "Emission Shape", "Flags", "Gravity", "Initial Velocity", "Linear Accel", "Orbit Velocity", "Radial Accel", "Scale", "Spread", "Tangential Accel", "Trail" ]

[node name="BossBullet" type="KinematicBody2D" groups=[
"Bullets",
]]

input_pickable = false
collision_layer = 1
collision_mask = 1
collision/safe_margin = 0.08
script = ExtResource( 1 )
_sections_unfolded = [ "Angular" ]

[node name="CollisionShape2D" type="CollisionShape2D" parent="." index="0"]

position = Vector2( 0, 0.428571 )
scale = Vector2( 1, 0.294643 )
shape = SubResource( 1 )
disabled = true
_sections_unfolded = [ "Transform" ]

[node name="Sprite" type="Sprite" parent="." index="1"]

scale = Vector2( 1.5, 1.5 )
texture = ExtResource( 2 )
_sections_unfolded = [ "Transform", "Visibility" ]

[node name="Area2D" type="Area2D" parent="." index="2"]

input_pickable = true
gravity_vec = Vector2( 0, 1 )
gravity = 98.0
linear_damp = 0.1
angular_damp = 1.0
audio_bus_override = false
audio_bus_name = "Master"

[node name="CollisionShape2D" type="CollisionShape2D" parent="Area2D" index="0"]

position = Vector2( -0.25576, 0.132185 )
scale = Vector2( 1.5, 1.5 )
shape = SubResource( 2 )
_sections_unfolded = [ "Transform" ]

[node name="Particles2D" type="Particles2D" parent="." index="3"]

position = Vector2( -0.0577869, 0.674196 )
emitting = false
amount = 4
lifetime = 0.7
one_shot = true
preprocess = 0.0
speed_scale = 2.0
explosiveness = 0.0
randomness = 1.0
fixed_fps = 0
fract_delta = true
visibility_rect = Rect2( -100, -100, 200, 200 )
local_coords = true
draw_order = 0
process_material = SubResource( 3 )
texture = null
normal_map = null
h_frames = 1
v_frames = 1
_sections_unfolded = [ "Process Material", "Textures", "Time", "Visibility" ]
__meta__ = {
"_edit_lock_": true
}


