; Engine configuration file.
; It's best edited using the editor UI and not directly,
; since the parameters that go here are not all obvious.
;
; Format:
;   [section] ; section goes between []
;   param=value ; assign values to parameters

config_version=3

[application]

config/name="Cactus y Opuntia"
run/main_scene="res://MainMenu.tscn"
boot_splash/image="res://splash.png"
config/icon="res://icon.png"

[display]

window/size/resizable=false

[input]

attack=[ Object(InputEventKey,"resource_local_to_scene":false,"resource_name":"","device":0,"alt":false,"shift":false,"control":false,"meta":false,"command":false,"pressed":false,"scancode":32,"unicode":0,"echo":false,"script":null)
 ]

[layer_names]

2d_physics/layer_1="Everything"
2d_physics/layer_2="Enemies"
2d_physics/layer_3="Player"
2d_physics/layer_4="Note"
2d_physics/layer_5="Tequila"
2d_physics/layer_6="Background"

[rendering]

environment/default_environment="res://default_env.tres"
