[gd_scene load_steps=79 format=2]

[ext_resource path="res://Scripts/World.gd" type="Script" id=1]
[ext_resource path="res://Protag.tscn" type="PackedScene" id=2]
[ext_resource path="res://Tilesets/smaller_desert.tres" type="TileSet" id=3]
[ext_resource path="res://Enemy.tscn" type="PackedScene" id=4]
[ext_resource path="res://Terrorist.tscn" type="PackedScene" id=5]
[ext_resource path="res://Runner.tscn" type="PackedScene" id=6]
[ext_resource path="res://Scripts/Heal.gd" type="Script" id=7]
[ext_resource path="res://Sprites/BG/tin.png" type="Texture" id=8]
[ext_resource path="res://Sprites/BG/butelka2.png" type="Texture" id=9]
[ext_resource path="res://Sound/muzyka.ogg" type="AudioStream" id=10]
[ext_resource path="res://theme.tres" type="Theme" id=11]
[ext_resource path="res://Scripts/PauseMenu.gd" type="Script" id=12]
[ext_resource path="res://Scripts/GameOver.gd" type="Script" id=13]
[ext_resource path="res://Scripts/HealthBar.gd" type="Script" id=14]
[ext_resource path="res://Sprites/lifebar.png" type="Texture" id=15]
[ext_resource path="res://Sprites/BG/powerup.png" type="Texture" id=16]
[ext_resource path="res://Scripts/Background.gd" type="Script" id=17]
[ext_resource path="res://Sprites/BG/sign.png" type="Texture" id=18]
[ext_resource path="res://Sprites/BG/bridge.png" type="Texture" id=19]
[ext_resource path="res://Scripts/water.gd" type="Script" id=20]
[ext_resource path="res://Tilesets/water_full.png" type="Texture" id=21]
[ext_resource path="res://Tilesets/water_full1.png" type="Texture" id=22]
[ext_resource path="res://Tilesets/water_full2.png" type="Texture" id=23]
[ext_resource path="res://Tilesets/water1.png" type="Texture" id=24]
[ext_resource path="res://Tilesets/water2.png" type="Texture" id=25]
[ext_resource path="res://Tilesets/water.png" type="Texture" id=26]
[ext_resource path="res://SFX/splash.ogg" type="AudioStream" id=27]
[ext_resource path="res://Sprites/BG/bez kutasa.png" type="Texture" id=28]
[ext_resource path="res://Sprites/BG/szopa.png" type="Texture" id=29]
[ext_resource path="res://Sprites/BG/budynek.png" type="Texture" id=30]
[ext_resource path="res://Sprites/BG/drzewo.png" type="Texture" id=31]
[ext_resource path="res://Sprites/BG/bank.png" type="Texture" id=32]
[ext_resource path="res://Sprites/BG/budynek2.png" type="Texture" id=33]
[ext_resource path="res://Sprites/BG/butelka.png" type="Texture" id=34]
[ext_resource path="res://Sprites/BG/butelka3.png" type="Texture" id=35]
[ext_resource path="res://Sprites/BG/motel.png" type="Texture" id=36]
[ext_resource path="res://Sprites/BG/beczka.png" type="Texture" id=37]
[ext_resource path="res://Sprites/BG/woz.png" type="Texture" id=38]
[ext_resource path="res://Sprites/BG/fort.png" type="Texture" id=39]
[ext_resource path="res://Sprites/BG/budynek4.png" type="Texture" id=40]
[ext_resource path="res://Sprites/BG/saloon.png" type="Texture" id=41]
[ext_resource path="res://Sprites/BG/burdel.png" type="Texture" id=42]

[sub_resource type="ShaderMaterial" id=1]

render_priority = 0

[sub_resource type="ParticlesMaterial" id=2]

render_priority = 0
trail_divisor = 1
emission_shape = 1
emission_sphere_radius = 5.0
flag_align_y = false
flag_rotate_y = false
flag_disable_z = true
spread = 180.0
flatness = 0.0
gravity = Vector3( 0, 98, 0 )
initial_velocity = 32.52
initial_velocity_random = 0.0
angular_velocity = 354.15
angular_velocity_random = 0.0
orbit_velocity = 0.0
orbit_velocity_random = 0.0
linear_accel = 49.59
linear_accel_random = 0.0
radial_accel = 28.45
radial_accel_random = 0.0
tangential_accel = 34.96
tangential_accel_random = 0.0
damping = 39.03
damping_random = 0.0
angle = 720.0
angle_random = 0.0
scale = 2.0
scale_random = 0.0
color = Color( 0.742188, 0.188446, 0.188446, 1 )
hue_variation = 0.0
hue_variation_random = 0.0
anim_speed = 0.0
anim_speed_random = 0.0
anim_offset = 0.0
anim_offset_random = 0.0
anim_loop = false
_sections_unfolded = [ "Angle", "Angular Velocity", "Color", "Damping", "Emission Shape", "Flags", "Initial Velocity", "Linear Accel", "Orbit Velocity", "Radial Accel", "Scale", "Spread", "Tangential Accel", "Trail" ]

[sub_resource type="RectangleShape2D" id=3]

custom_solver_bias = 0.0
extents = Vector2( 10, 15.1023 )

[sub_resource type="Gradient" id=4]

offsets = PoolRealArray( 0, 0, 1 )
colors = PoolColorArray( 0.832987, 0.511551, 0.878906, 1, 0.476563, 0.0632935, 0.0632935, 1, 0.984375, 0.542175, 0.977466, 1 )
_sections_unfolded = [ "Resource" ]

[sub_resource type="GradientTexture" id=5]

flags = 4
gradient = SubResource( 4 )
width = 2048
_sections_unfolded = [ "Resource" ]

[sub_resource type="RectangleShape2D" id=6]

custom_solver_bias = 0.0
extents = Vector2( 6.02191, 1.09116 )

[sub_resource type="RectangleShape2D" id=7]

custom_solver_bias = 0.0
extents = Vector2( 38.3532, 1.52315 )

[sub_resource type="SpriteFrames" id=8]

animations = [ {
"frames": [ ExtResource( 21 ), ExtResource( 22 ), ExtResource( 23 ) ],
"loop": true,
"name": "ful",
"speed": 5.0
}, {
"frames": [ ExtResource( 24 ), ExtResource( 25 ), ExtResource( 26 ) ],
"loop": true,
"name": "nieful",
"speed": 5.0
} ]

[sub_resource type="RectangleShape2D" id=9]

custom_solver_bias = 0.0
extents = Vector2( 197.676, 6 )

[sub_resource type="RectangleShape2D" id=10]

custom_solver_bias = 0.0
extents = Vector2( 55.5341, 2.27308 )

[sub_resource type="RectangleShape2D" id=11]

custom_solver_bias = 0.0
extents = Vector2( 87.8724, 16.7997 )

[sub_resource type="RectangleShape2D" id=12]

custom_solver_bias = 0.0
extents = Vector2( 24.447, 11.4163 )

[sub_resource type="RectangleShape2D" id=13]

custom_solver_bias = 0.0
extents = Vector2( 58, 2 )

[sub_resource type="RectangleShape2D" id=14]

custom_solver_bias = 0.0
extents = Vector2( 32.0278, 2 )

[sub_resource type="RectangleShape2D" id=15]

custom_solver_bias = 0.0
extents = Vector2( 10, 68 )

[sub_resource type="RectangleShape2D" id=16]

custom_solver_bias = 0.0
extents = Vector2( 59.7193, 1.73685 )

[sub_resource type="RectangleShape2D" id=17]

custom_solver_bias = 0.0
extents = Vector2( 10, 106.425 )

[sub_resource type="RectangleShape2D" id=18]

custom_solver_bias = 0.0
extents = Vector2( 78.3332, 2 )

[sub_resource type="RectangleShape2D" id=19]

custom_solver_bias = 0.0
extents = Vector2( 90, 2 )

[sub_resource type="RectangleShape2D" id=20]

custom_solver_bias = 0.0
extents = Vector2( 10, 130.382 )

[sub_resource type="RectangleShape2D" id=21]

custom_solver_bias = 0.0
extents = Vector2( 16.5924, 2 )

[sub_resource type="RectangleShape2D" id=22]

custom_solver_bias = 0.0
extents = Vector2( 182.199, 43.9013 )

[sub_resource type="RectangleShape2D" id=23]

custom_solver_bias = 0.0
extents = Vector2( 38, 3.80457 )

[sub_resource type="RectangleShape2D" id=24]

custom_solver_bias = 0.0
extents = Vector2( 10, 80 )

[sub_resource type="RectangleShape2D" id=25]

custom_solver_bias = 0.0
extents = Vector2( 35.5088, 10 )

[sub_resource type="RectangleShape2D" id=26]

custom_solver_bias = 0.0
extents = Vector2( 8.13391, 1.33117 )

[sub_resource type="RectangleShape2D" id=27]

custom_solver_bias = 0.0
extents = Vector2( 39.1637, 2.6647 )

[sub_resource type="RectangleShape2D" id=28]

custom_solver_bias = 0.0
extents = Vector2( 10, 112.336 )

[sub_resource type="RectangleShape2D" id=29]

custom_solver_bias = 0.0
extents = Vector2( 7.51367, 2 )

[sub_resource type="RectangleShape2D" id=30]

custom_solver_bias = 0.0
extents = Vector2( 88, 2 )

[sub_resource type="RectangleShape2D" id=31]

custom_solver_bias = 0.0
extents = Vector2( 60, 2 )

[sub_resource type="RectangleShape2D" id=32]

custom_solver_bias = 0.0
extents = Vector2( 10, 126 )

[sub_resource type="RectangleShape2D" id=33]

custom_solver_bias = 0.0
extents = Vector2( 12.6536, 2.13309 )

[sub_resource type="RectangleShape2D" id=34]

custom_solver_bias = 0.0
extents = Vector2( 12, 62.9839 )

[sub_resource type="RectangleShape2D" id=35]

custom_solver_bias = 0.0
extents = Vector2( 16, 2 )

[sub_resource type="RectangleShape2D" id=36]

custom_solver_bias = 0.0
extents = Vector2( 14, 20 )

[node name="world" type="Node"]

script = ExtResource( 1 )

[node name="Timer" type="Timer" parent="." index="0"]

process_mode = 1
wait_time = 1.0
one_shot = false
autostart = false

[node name="Protag" parent="." index="1" instance=ExtResource( 2 )]

position = Vector2( -2089.52, -59.8314 )
_sections_unfolded = [ "Collision", "Material", "Pause", "Transform", "Visibility", "Z Index" ]
jumpVel = -200

[node name="TileMap" type="TileMap" parent="." index="2"]

scale = Vector2( 0.5, 0.5 )
mode = 0
tile_set = ExtResource( 3 )
cell_size = Vector2( 32, 32 )
cell_quadrant_size = 16
cell_custom_transform = Transform2D( 0, 0, 0, 0, 0, 0 )
cell_half_offset = 2
cell_tile_origin = 0
cell_y_sort = false
cell_clip_uv = false
collision_use_kinematic = false
collision_friction = 1.0
collision_bounce = 0.0
collision_layer = 1
collision_mask = 1
occluder_light_mask = 1
format = 1
tile_data = PoolIntArray( -983204, 0, 0, -983203, 0, 0, -983202, 0, 0, -983201, 0, 0, -983200, 0, 0, -983199, 0, 0, -983198, 0, 0, -983197, 0, 0, -983196, 0, 0, -917668, 0, 0, -917667, 0, 0, -917666, 0, 0, -917665, 0, 0, -917664, 0, 0, -917663, 0, 0, -917662, 0, 0, -917661, 0, 0, -917660, 0, 0, -917659, 0, 0, -852132, 0, 0, -852131, 0, 0, -852130, 0, 0, -852129, 0, 0, -852128, 0, 0, -852127, 0, 0, -852126, 0, 0, -852125, 0, 0, -852124, 0, 0, -852123, 0, 0, -852122, 0, 0, -786597, 0, 0, -786596, 0, 0, -786595, 0, 0, -786594, 0, 0, -786593, 0, 0, -786592, 0, 0, -786591, 0, 0, -786590, 0, 0, -786589, 0, 0, -786588, 0, 0, -786587, 0, 0, -786586, 0, 0, -786585, 0, 0, -721060, 0, 0, -721059, 0, 0, -721058, 0, 0, -721057, 0, 0, -721056, 0, 0, -721055, 0, 0, -721054, 0, 0, -721053, 0, 0, -721052, 0, 0, -721051, 0, 0, -721050, 0, 0, -721049, 0, 0, -655524, 0, 0, -655523, 0, 0, -655522, 0, 0, -655521, 0, 0, -655520, 0, 0, -655519, 0, 0, -655518, 0, 0, -655517, 0, 0, -655516, 0, 0, -655515, 0, 0, -655514, 0, 0, -655513, 0, 0, -589988, 0, 0, -589987, 0, 0, -589986, 0, 0, -589985, 0, 0, -589984, 0, 0, -589983, 0, 0, -589982, 0, 0, -589981, 0, 0, -589980, 0, 0, -589979, 0, 0, -589978, 0, 0, -589977, 0, 0, -589976, 0, 0, -524452, 0, 0, -524451, 0, 0, -524450, 0, 0, -524449, 0, 0, -524448, 0, 0, -524447, 0, 0, -524446, 0, 0, -524445, 0, 0, -524444, 0, 0, -524443, 0, 0, -524442, 0, 0, -524441, 0, 0, -524440, 0, 0, -458916, 0, 0, -458915, 0, 0, -458914, 0, 0, -458913, 0, 0, -458912, 0, 0, -458911, 0, 0, -458910, 0, 0, -458909, 0, 0, -458908, 0, 0, -458907, 0, 0, -458906, 0, 0, -458905, 0, 0, -458904, 0, 0, -458903, 0, 0, -524238, 0, 0, -524237, 0, 0, -393380, 0, 0, -393379, 0, 0, -393378, 0, 0, -393377, 0, 0, -393376, 0, 0, -393375, 0, 0, -393374, 0, 0, -393373, 0, 0, -393372, 0, 0, -393371, 0, 0, -393370, 0, 0, -393369, 0, 0, -393368, 0, 0, -393367, 0, 0, -393366, 0, 0, -393365, 0, 0, -458703, 0, 0, -458702, 0, 0, -458701, 0, 0, -327844, 0, 0, -327843, 0, 0, -327842, 0, 0, -327841, 0, 0, -327840, 0, 0, -327839, 0, 0, -327838, 0, 0, -327837, 0, 0, -327836, 0, 0, -327835, 0, 0, -327834, 0, 0, -327833, 0, 0, -327832, 0, 0, -327831, 0, 0, -327830, 0, 0, -327829, 0, 0, -327828, 0, 0, -327827, 0, 0, -393168, 0, 0, -393167, 0, 0, -393166, 0, 0, -393165, 0, 0, -393164, 0, 0, -262308, 0, 0, -262307, 0, 0, -262306, 0, 0, -262305, 0, 0, -262304, 0, 0, -262303, 0, 0, -262302, 0, 0, -262301, 0, 0, -262300, 0, 0, -262299, 0, 0, -262298, 0, 0, -262297, 0, 0, -262296, 0, 0, -262295, 0, 0, -262294, 0, 0, -262293, 0, 0, -262292, 0, 0, -262291, 0, 0, -262290, 0, 0, -327633, 0, 0, -327632, 0, 0, -327631, 0, 0, -327630, 0, 0, -327629, 0, 0, -327628, 0, 0, -327627, 0, 0, -196772, 0, 0, -196771, 0, 0, -196770, 0, 0, -196769, 0, 0, -196768, 0, 0, -196767, 0, 0, -196766, 0, 0, -196765, 0, 0, -196764, 0, 0, -196763, 0, 0, -196762, 0, 0, -196761, 0, 0, -196760, 0, 0, -196759, 0, 0, -196758, 0, 0, -196757, 0, 0, -196756, 0, 0, -196755, 0, 0, -196754, 0, 0, -196753, 0, 0, -196752, 0, 0, -262098, 0, 0, -262097, 0, 0, -262096, 0, 0, -262095, 0, 0, -262094, 0, 0, -262093, 0, 0, -262092, 0, 0, -262091, 0, 0, -262090, 0, 0, -131236, 0, 0, -131235, 0, 0, -131234, 0, 0, -131233, 0, 0, -131232, 0, 0, -131231, 0, 0, -131230, 0, 0, -131229, 0, 0, -131228, 0, 0, -131227, 0, 0, -131226, 0, 0, -131225, 0, 0, -131224, 0, 0, -131223, 0, 0, -131222, 0, 0, -131221, 0, 0, -131220, 0, 0, -131219, 0, 0, -131218, 0, 0, -131217, 0, 0, -131216, 0, 0, -131215, 0, 0, -131115, 0, 0, -131114, 0, 0, -131113, 0, 0, -131112, 0, 0, -131111, 0, 0, -131110, 0, 0, -131109, 0, 0, -131108, 0, 0, -131107, 0, 0, -131106, 0, 0, -131105, 0, 0, -131104, 0, 0, -131103, 0, 0, -131102, 0, 0, -196563, 0, 0, -196562, 0, 0, -196561, 0, 0, -196560, 0, 0, -196559, 0, 0, -196558, 0, 0, -196557, 0, 0, -196556, 0, 0, -196555, 0, 0, -196554, 0, 0, -196553, 0, 0, -196552, 0, 0, -196551, 0, 0, -196550, 0, 0, -196549, 0, 0, -196548, 0, 0, -196547, 0, 0, -196546, 0, 0, -196545, 0, 0, -196544, 0, 0, -196543, 0, 0, -65700, 0, 0, -65699, 0, 0, -65698, 0, 0, -65697, 0, 0, -65696, 0, 0, -65695, 0, 0, -65694, 0, 0, -65693, 0, 0, -65692, 0, 0, -65691, 0, 0, -65690, 0, 0, -65689, 0, 0, -65688, 0, 0, -65687, 0, 0, -65686, 0, 0, -65685, 0, 0, -65684, 0, 0, -65683, 0, 0, -65682, 0, 0, -65681, 0, 0, -65680, 0, 0, -65679, 0, 0, -65678, 0, 0, -65579, 0, 0, -65578, 0, 0, -65577, 0, 0, -65576, 0, 0, -65575, 0, 0, -65574, 0, 0, -65573, 0, 0, -65572, 0, 0, -65571, 0, 0, -65570, 0, 0, -65569, 0, 0, -65568, 0, 0, -65567, 0, 0, -65566, 0, 0, -131030, 0, 0, -131029, 0, 0, -131028, 0, 0, -131027, 0, 0, -131026, 0, 0, -131025, 0, 0, -131024, 0, 0, -131023, 0, 0, -131022, 0, 0, -131021, 0, 0, -131020, 0, 0, -131019, 0, 0, -131018, 0, 0, -131017, 0, 0, -131016, 0, 0, -131015, 0, 0, -131014, 0, 0, -131013, 0, 0, -131012, 0, 0, -131011, 0, 0, -131010, 0, 0, -131009, 0, 0, -131008, 0, 0, -131007, 0, 0, -131006, 0, 0, -131005, 0, 0, -131004, 0, 0, -131003, 0, 0, -131002, 0, 0, -164, 0, 0, -163, 0, 0, -162, 0, 0, -161, 0, 0, -160, 0, 0, -159, 0, 0, -158, 0, 0, -157, 0, 0, -156, 0, 0, -155, 0, 0, -154, 0, 0, -153, 0, 0, -152, 0, 0, -151, 0, 0, -150, 0, 0, -149, 0, 0, -148, 0, 0, -147, 0, 0, -146, 0, 0, -145, 0, 0, -144, 0, 0, -143, 0, 0, -142, 0, 0, -141, 0, 0, -43, 0, 0, -42, 0, 0, -41, 0, 0, -40, 0, 0, -39, 0, 0, -38, 0, 0, -37, 0, 0, -36, 0, 0, -35, 0, 0, -34, 0, 0, -33, 0, 0, -32, 0, 0, -31, 0, 0, -30, 0, 0, -65498, 0, 0, -65497, 0, 0, -65496, 0, 0, -65495, 0, 0, -65494, 0, 0, -65493, 0, 0, -65492, 0, 0, -65491, 0, 0, -65490, 0, 0, -65489, 0, 0, -65488, 0, 0, -65487, 0, 0, -65486, 0, 0, -65485, 0, 0, -65484, 0, 0, -65483, 0, 0, -65482, 0, 0, -65481, 0, 0, -65480, 0, 0, -65479, 0, 0, -65478, 0, 0, -65477, 0, 0, -65476, 0, 0, -65475, 0, 0, -65474, 0, 0, -65473, 0, 0, -65472, 0, 0, -65471, 0, 0, -65470, 0, 0, -65469, 0, 0, -65468, 0, 0, -65467, 0, 0, -65466, 0, 0, -65465, 0, 0, -65464, 0, 0, -65463, 0, 0, -65462, 0, 0, 65372, 0, 0, 65373, 0, 0, 65374, 0, 0, 65375, 0, 0, 65376, 0, 0, 65377, 0, 0, 65378, 0, 0, 65379, 0, 0, 65380, 0, 0, 65381, 0, 0, 65382, 0, 0, 65383, 0, 0, 65384, 0, 0, 65385, 0, 0, 65386, 0, 0, 65387, 0, 0, 65388, 0, 0, 65389, 0, 0, 65390, 0, 0, 65391, 0, 0, 65392, 0, 0, 65393, 0, 0, 65394, 0, 0, 65395, 0, 0, 65396, 0, 0, 65397, 0, 0, 65398, 0, 0, 65399, 0, 0, 65400, 0, 0, 65401, 0, 0, 65402, 0, 0, 65403, 0, 0, 65404, 0, 0, 65405, 0, 0, 65406, 0, 0, 65407, 0, 0, 65408, 0, 0, 65409, 0, 0, 65410, 0, 0, 65411, 0, 0, 65412, 0, 0, 65413, 0, 0, 65414, 0, 0, 65415, 0, 0, 65416, 0, 0, 65417, 0, 0, 65418, 0, 0, 65419, 0, 0, 65420, 0, 0, 65421, 0, 0, 65422, 0, 0, 65423, 0, 0, 65424, 0, 0, 65453, 0, 0, 65454, 0, 0, 65455, 0, 0, 65456, 0, 0, 65457, 0, 0, 65458, 0, 0, 65459, 0, 0, 65460, 0, 0, 65461, 0, 0, 65462, 0, 0, 65463, 0, 0, 65464, 0, 0, 65465, 0, 0, 65466, 0, 0, 65467, 0, 0, 65468, 0, 0, 65469, 0, 0, 65470, 0, 0, 65471, 0, 0, 65472, 0, 0, 65473, 0, 0, 65474, 0, 0, 65475, 0, 0, 65476, 0, 0, 65477, 0, 0, 65478, 0, 0, 65479, 0, 0, 65480, 0, 0, 65481, 0, 0, 65482, 0, 0, 65483, 0, 0, 65484, 0, 0, 65485, 0, 0, 65486, 0, 0, 65487, 0, 0, 65488, 0, 0, 65489, 0, 0, 65490, 0, 0, 65491, 0, 0, 65492, 0, 0, 65493, 0, 0, 65494, 0, 0, 65495, 0, 0, 65496, 0, 0, 65497, 0, 0, 65498, 0, 0, 65499, 0, 0, 65500, 0, 0, 65501, 0, 0, 65502, 0, 0, 65503, 0, 0, 65504, 0, 0, 65505, 0, 0, 65506, 0, 0, 65507, 0, 0, 65508, 0, 0, 65509, 0, 0, 65510, 0, 0, 65511, 0, 0, 65512, 0, 0, 65513, 0, 0, 65514, 0, 0, 65515, 0, 0, 65516, 0, 0, 65517, 0, 0, 65518, 0, 0, 65519, 0, 0, 65520, 0, 0, 65521, 0, 0, 65522, 0, 0, 65523, 0, 0, 65524, 0, 0, 65525, 0, 0, 65526, 0, 0, 65527, 0, 0, 65528, 0, 0, 65529, 0, 0, 65530, 0, 0, 65531, 0, 0, 65532, 0, 0, 65533, 0, 0, 65534, 0, 0, 65535, 0, 0, 0, 0, 0, 1, 0, 0, 2, 0, 0, 3, 0, 0, 4, 0, 0, 5, 0, 0, 6, 0, 0, 7, 0, 0, 8, 0, 0, 9, 0, 0, 10, 0, 0, 11, 0, 0, 12, 0, 0, 13, 0, 0, 14, 0, 0, 15, 0, 0, 16, 0, 0, 17, 0, 0, 18, 0, 0, 19, 0, 0, 20, 0, 0, 21, 0, 0, 22, 0, 0, 23, 0, 0, 24, 0, 0, 25, 0, 0, 26, 0, 0, 27, 0, 0, 28, 0, 0, 29, 0, 0, 30, 0, 0, 31, 0, 0, 32, 0, 0, 33, 0, 0, 34, 0, 0, 35, 0, 0, 36, 0, 0, 37, 0, 0, 38, 0, 0, 39, 0, 0, 40, 0, 0, 41, 0, 0, 42, 0, 0, 43, 0, 0, 44, 0, 0, 45, 0, 0, 46, 0, 0, 47, 0, 0, 48, 0, 0, 49, 0, 0, 50, 0, 0, 51, 0, 0, 52, 0, 0, 53, 0, 0, 54, 0, 0, 55, 0, 0, 56, 0, 0, 57, 0, 0, 58, 0, 0, 59, 0, 0, 60, 0, 0, 61, 0, 0, 62, 0, 0, 63, 0, 0, 64, 0, 0, 65, 0, 0, 66, 0, 0, 67, 0, 0, 68, 0, 0, 69, 0, 0, 70, 0, 0, 71, 0, 0, 72, 0, 0, 73, 0, 0, 74, 0, 0, 75, 0, 0, 76, 0, 0, 77, 0, 0, 78, 0, 0, 79, 0, 0, 80, 0, 0, 81, 0, 0, 82, 0, 0, 83, 0, 0, 84, 0, 0, 85, 0, 0, 86, 0, 0, 87, 0, 0, 88, 0, 0, 89, 0, 0, 90, 0, 0, 91, 0, 0, 92, 0, 0, 93, 0, 0, 94, 0, 0, 95, 0, 0, 96, 0, 0, 97, 0, 0, 98, 0, 0, 99, 0, 0, 100, 0, 0, 101, 0, 0, 102, 0, 0, 103, 0, 0, 104, 0, 0, 105, 0, 0, 106, 0, 0, 107, 0, 0, 108, 0, 0, 109, 0, 0, 110, 0, 0, 111, 0, 0, 112, 0, 0, 113, 0, 0, 114, 0, 0, 115, 0, 0, 116, 0, 0, 117, 0, 0, 118, 0, 0, 119, 0, 0, 120, 0, 0, 121, 0, 0, 122, 0, 0, 123, 0, 0, 124, 0, 0, 125, 0, 0, 126, 0, 0, 127, 0, 0, 128, 0, 0, 129, 0, 0, 130, 0, 0, 131, 0, 0, 132, 0, 0, 133, 0, 0, 134, 0, 0, 135, 0, 0, 136, 0, 0, 137, 0, 0, 138, 0, 0, 139, 0, 0, 140, 0, 0, 141, 0, 0, 142, 0, 0, 143, 0, 0, 144, 0, 0, 145, 0, 0, 146, 0, 0, 147, 0, 0, 148, 0, 0, 149, 0, 0, 150, 0, 0, 151, 0, 0, 152, 0, 0, 153, 0, 0, 154, 0, 0, 155, 0, 0, 156, 0, 0, 157, 0, 0, 158, 0, 0, 159, 0, 0, 160, 0, 0, 161, 0, 0, 162, 0, 0, 163, 0, 0, 164, 0, 0, 165, 0, 0, 166, 0, 0, 167, 0, 0, 168, 0, 0, 169, 0, 0, 170, 0, 0, 171, 0, 0, 172, 0, 0, 173, 0, 0, 174, 0, 0, 175, 0, 0, 176, 0, 0, 177, 0, 0, 178, 0, 0, 179, 0, 0, 180, 0, 0, 181, 0, 0, 130908, 0, 0, 130909, 0, 0, 130910, 0, 0, 130911, 0, 0, 130912, 0, 0, 130913, 0, 0, 130914, 0, 0, 130915, 0, 0, 130916, 0, 0, 130917, 0, 0, 130918, 0, 0, 130919, 0, 0, 130920, 0, 0, 130921, 0, 0, 130922, 0, 0, 130923, 0, 0, 130924, 0, 0, 130925, 0, 0, 130926, 0, 0, 130927, 0, 0, 130928, 0, 0, 130929, 0, 0, 130930, 0, 0, 130931, 0, 0, 130932, 0, 0, 130933, 0, 0, 130934, 0, 0, 130935, 0, 0, 130936, 0, 0, 130937, 0, 0, 130938, 0, 0, 130939, 0, 0, 130940, 0, 0, 130941, 0, 0, 130942, 0, 0, 130943, 0, 0, 130944, 0, 0, 130945, 0, 0, 130946, 0, 0, 130947, 0, 0, 130948, 0, 0, 130949, 0, 0, 130950, 0, 0, 130951, 0, 0, 130952, 0, 0, 130953, 0, 0, 130954, 0, 0, 130955, 0, 0, 130956, 0, 0, 130957, 0, 0, 130958, 0, 0, 130959, 0, 0, 130960, 0, 0, 130961, 0, 0, 130962, 0, 0, 130963, 0, 0, 130964, 0, 0, 130965, 0, 0, 130966, 0, 0, 130967, 0, 0, 130968, 0, 0, 130969, 0, 0, 130970, 0, 0, 130971, 0, 0, 130972, 0, 0, 130981, 0, 0, 130982, 0, 0, 130983, 0, 0, 130984, 0, 0, 130985, 0, 0, 130986, 0, 0, 130987, 0, 0, 130988, 0, 0, 130989, 0, 0, 130990, 0, 0, 130991, 0, 0, 130992, 0, 0, 130993, 0, 0, 130994, 0, 0, 130995, 0, 0, 130996, 0, 0, 130997, 0, 0, 130998, 0, 0, 130999, 0, 0, 131000, 0, 0, 131001, 0, 0, 131002, 0, 0, 131003, 0, 0, 131004, 0, 0, 131005, 0, 0, 131006, 0, 0, 131007, 0, 0, 131008, 0, 0, 131009, 0, 0, 131010, 0, 0, 131011, 0, 0, 131012, 0, 0, 131013, 0, 0, 131014, 0, 0, 131015, 0, 0, 131016, 0, 0, 131017, 0, 0, 131018, 0, 0, 131019, 0, 0, 131020, 0, 0, 131021, 0, 0, 131022, 0, 0, 131023, 0, 0, 131024, 0, 0, 131025, 0, 0, 131026, 0, 0, 131027, 0, 0, 131028, 0, 0, 131029, 0, 0, 131030, 0, 0, 131031, 0, 0, 131032, 0, 0, 131033, 0, 0, 131034, 0, 0, 131035, 0, 0, 131036, 0, 0, 131037, 0, 0, 131038, 0, 0, 131039, 0, 0, 131040, 0, 0, 131041, 0, 0, 131042, 0, 0, 131043, 0, 0, 131044, 0, 0, 131045, 0, 0, 131046, 0, 0, 131047, 0, 0, 131048, 0, 0, 131049, 0, 0, 131050, 0, 0, 131051, 0, 0, 131052, 0, 0, 131053, 0, 0, 131054, 0, 0, 131055, 0, 0, 131056, 0, 0, 131057, 0, 0, 131058, 0, 0, 131059, 0, 0, 131060, 0, 0, 131061, 0, 0, 131062, 0, 0, 131063, 0, 0, 131064, 0, 0, 131065, 0, 0, 131066, 0, 0, 131067, 0, 0, 131068, 0, 0, 131069, 0, 0, 131070, 0, 0, 131071, 0, 0, 65536, 0, 0, 65537, 0, 0, 65538, 0, 0, 65539, 0, 0, 65540, 0, 0, 65541, 0, 0, 65542, 0, 0, 65543, 0, 0, 65544, 0, 0, 65545, 0, 0, 65546, 0, 0, 65547, 0, 0, 65548, 0, 0, 65549, 0, 0, 65550, 0, 0, 65551, 0, 0, 65552, 0, 0, 65553, 0, 0, 65554, 0, 0, 65555, 0, 0, 65556, 0, 0, 65557, 0, 0, 65558, 0, 0, 65559, 0, 0, 65560, 0, 0, 65561, 0, 0, 65562, 0, 0, 65563, 0, 0, 65564, 0, 0, 65565, 0, 0, 65566, 0, 0, 65567, 0, 0, 65568, 0, 0, 65569, 0, 0, 65570, 0, 0, 65571, 0, 0, 65572, 0, 0, 65573, 0, 0, 65574, 0, 0, 65575, 0, 0, 65576, 0, 0, 65577, 0, 0, 65578, 0, 0, 65579, 0, 0, 65580, 0, 0, 65581, 0, 0, 65582, 0, 0, 65583, 0, 0, 65584, 0, 0, 65585, 0, 0, 65586, 0, 0, 65587, 0, 0, 65588, 0, 0, 65589, 0, 0, 65590, 0, 0, 65591, 0, 0, 65592, 0, 0, 65593, 0, 0, 65594, 0, 0, 65595, 0, 0, 65596, 0, 0, 65597, 0, 0, 65598, 0, 0, 65599, 0, 0, 65600, 0, 0, 65601, 0, 0, 65602, 0, 0, 65603, 0, 0, 65604, 0, 0, 65605, 0, 0, 65606, 0, 0, 65607, 0, 0, 65608, 0, 0, 65609, 0, 0, 65610, 0, 0, 65611, 0, 0, 65612, 0, 0, 65613, 0, 0, 65614, 0, 0, 65615, 0, 0, 65616, 0, 0, 65617, 0, 0, 65618, 0, 0, 65619, 0, 0, 65620, 0, 0, 65621, 0, 0, 65622, 0, 0, 65623, 0, 0, 65624, 0, 0, 65625, 0, 0, 65626, 0, 0, 65627, 0, 0, 65628, 0, 0, 65629, 0, 0, 65630, 0, 0, 65631, 0, 0, 65632, 0, 0, 65633, 0, 0, 65634, 0, 0, 65635, 0, 0, 65636, 0, 0, 65637, 0, 0, 65638, 0, 0, 65639, 0, 0, 65640, 0, 0, 65641, 0, 0, 65642, 0, 0, 65643, 0, 0, 65644, 0, 0, 65645, 0, 0, 65646, 0, 0, 65647, 0, 0, 65648, 0, 0, 65649, 0, 0, 65650, 0, 0, 65651, 0, 0, 65652, 0, 0, 65653, 0, 0, 65654, 0, 0, 65655, 0, 0, 65656, 0, 0, 65657, 0, 0, 65658, 0, 0, 65659, 0, 0, 65660, 0, 0, 65661, 0, 0, 65662, 0, 0, 65663, 0, 0, 65664, 0, 0, 65665, 0, 0, 65666, 0, 0, 65667, 0, 0, 65668, 0, 0, 65669, 0, 0, 65670, 0, 0, 65671, 0, 0, 65672, 0, 0, 65673, 0, 0, 65674, 0, 0, 65675, 0, 0, 65676, 0, 0, 65677, 0, 0, 65678, 0, 0, 65679, 0, 0, 65680, 0, 0, 65681, 0, 0, 65682, 0, 0, 65683, 0, 0, 65684, 0, 0, 65685, 0, 0, 65686, 0, 0, 65687, 0, 0, 65688, 0, 0, 65689, 0, 0, 65690, 0, 0, 65691, 0, 0, 65692, 0, 0, 65693, 0, 0, 65694, 0, 0, 65695, 0, 0, 65696, 0, 0, 65697, 0, 0, 65698, 0, 0, 65699, 0, 0, 65700, 0, 0, 65701, 0, 0, 65702, 0, 0, 65703, 0, 0, 65704, 0, 0, 65705, 0, 0, 65706, 0, 0, 65707, 0, 0, 65708, 0, 0, 65709, 0, 0, 65710, 0, 0, 65711, 0, 0, 65712, 0, 0, 65713, 0, 0, 65714, 0, 0, 65715, 0, 0, 65716, 0, 0, 65717, 0, 0 )
_sections_unfolded = [ "Cell", "Collision", "Transform", "Visibility" ]
__meta__ = {
"_edit_lock_": true
}

[node name="Gunslinga" parent="." index="3" instance=ExtResource( 4 )]

position = Vector2( -4202.73, 513.66 )
_sections_unfolded = [ "Collision", "Material", "Transform", "Visibility", "Z Index", "collision" ]
speed = 50

[node name="Terrorist" parent="." index="4" instance=ExtResource( 5 )]

position = Vector2( -66, 84 )
collision_mask = 9
_sections_unfolded = [ "Collision", "Transform", "collision" ]

[node name="Runner" parent="." index="5" instance=ExtResource( 6 )]

position = Vector2( -1036, 432 )
_sections_unfolded = [ "Collision", "Material", "Pause", "Pickable", "Transform", "Visibility", "Z Index", "collision" ]

[node name="StaticBody2D" type="StaticBody2D" parent="." index="6"]

editor/display_folded = true
input_pickable = false
collision_layer = 1
collision_mask = 1
constant_linear_velocity = Vector2( 0, 0 )
constant_angular_velocity = 0.0
friction = 1.0
bounce = 0.0
script = ExtResource( 7 )

[node name="Particles2D" type="Particles2D" parent="StaticBody2D" index="0"]

material = SubResource( 1 )
position = Vector2( 1551.21, -19.3286 )
z_index = 3
z_as_relative = false
emitting = false
amount = 8
lifetime = 1.0
one_shot = true
preprocess = 0.0
speed_scale = 2.0
explosiveness = 0.0
randomness = 0.0
fixed_fps = 0
fract_delta = true
visibility_rect = Rect2( -100, -100, 200, 200 )
local_coords = true
draw_order = 0
process_material = SubResource( 2 )
texture = null
normal_map = null
h_frames = 1
v_frames = 1
_sections_unfolded = [ "Material", "Process Material", "Time", "Visibility", "Z Index" ]

[node name="Heal" type="Area2D" parent="StaticBody2D" index="1"]

position = Vector2( 1552, -8 )
input_pickable = true
gravity_vec = Vector2( 0, 1 )
gravity = 98.0
linear_damp = 0.1
angular_damp = 1.0
audio_bus_override = false
audio_bus_name = "Master"

[node name="Sprite" type="Sprite" parent="StaticBody2D/Heal" index="0"]

texture = ExtResource( 8 )

[node name="Sprite2" type="Sprite" parent="StaticBody2D/Heal" index="1"]

position = Vector2( -0.538452, -14.1795 )
scale = Vector2( 0.5, 0.5 )
texture = ExtResource( 9 )
_sections_unfolded = [ "Transform" ]

[node name="CollisionShape2D" type="CollisionShape2D" parent="StaticBody2D/Heal" index="2"]

position = Vector2( -0.0897217, -7.08983 )
shape = SubResource( 3 )

[node name="AudioStreamPlayer" type="AudioStreamPlayer" parent="." index="7"]

stream = ExtResource( 10 )
volume_db = 10.0
pitch_scale = 1.0
autoplay = false
mix_target = 0
bus = "Master"

[node name="GUI" type="CanvasLayer" parent="." index="8"]

editor/display_folded = true
layer = 1
offset = Vector2( 0, 0 )
rotation = 0.0
scale = Vector2( 1, 1 )
transform = Transform2D( 1, 0, 0, 1, 0, 0 )

[node name="PauseMenu" type="Panel" parent="GUI" index="0"]

pause_mode = 2
visible = false
anchor_left = 0.0
anchor_top = 0.0
anchor_right = 0.0
anchor_bottom = 0.0
margin_left = 388.0
margin_top = 235.0
margin_right = 688.0
margin_bottom = 356.0
rect_pivot_offset = Vector2( 0, 0 )
rect_clip_content = false
mouse_filter = 0
mouse_default_cursor_shape = 0
size_flags_horizontal = 1
size_flags_vertical = 1
theme = ExtResource( 11 )
script = ExtResource( 12 )
_sections_unfolded = [ "Margin", "Pause", "Theme" ]
__meta__ = {
"_edit_group_": true
}
MenuScene = "res://MainMenu.tscn"

[node name="VBoxContainer" type="VBoxContainer" parent="GUI/PauseMenu" index="0"]

anchor_left = 0.0
anchor_top = 0.0
anchor_right = 0.0
anchor_bottom = 0.0
margin_left = 8.0
margin_top = 8.0
margin_right = 40.0
margin_bottom = 40.0
rect_pivot_offset = Vector2( 0, 0 )
rect_clip_content = false
mouse_filter = 1
mouse_default_cursor_shape = 0
size_flags_horizontal = 1
size_flags_vertical = 1
custom_constants/separation = 8
alignment = 0
_sections_unfolded = [ "Margin", "custom_constants" ]

[node name="Label" type="Label" parent="GUI/PauseMenu/VBoxContainer" index="0"]

anchor_left = 0.0
anchor_top = 0.0
anchor_right = 0.0
anchor_bottom = 0.0
margin_right = 284.0
margin_bottom = 16.0
rect_pivot_offset = Vector2( 0, 0 )
rect_clip_content = false
mouse_filter = 2
mouse_default_cursor_shape = 0
size_flags_horizontal = 1
size_flags_vertical = 4
text = "[PAUSED]"
align = 1
valign = 1
percent_visible = 1.0
lines_skipped = 0
max_lines_visible = -1
_sections_unfolded = [ "Theme", "custom_fonts" ]

[node name="ContinueButton" type="Button" parent="GUI/PauseMenu/VBoxContainer" index="1"]

anchor_left = 0.0
anchor_top = 0.0
anchor_right = 0.0
anchor_bottom = 0.0
margin_top = 24.0
margin_right = 284.0
margin_bottom = 46.0
rect_pivot_offset = Vector2( 0, 0 )
rect_clip_content = false
focus_mode = 2
mouse_filter = 0
mouse_default_cursor_shape = 0
size_flags_horizontal = 1
size_flags_vertical = 1
toggle_mode = false
enabled_focus_mode = 2
shortcut = null
group = null
text = "Continue Game"
flat = false
align = 1
_sections_unfolded = [ "Theme" ]

[node name="ResetButton" type="Button" parent="GUI/PauseMenu/VBoxContainer" index="2"]

anchor_left = 0.0
anchor_top = 0.0
anchor_right = 0.0
anchor_bottom = 0.0
margin_top = 54.0
margin_right = 284.0
margin_bottom = 76.0
rect_pivot_offset = Vector2( 0, 0 )
rect_clip_content = false
focus_mode = 2
mouse_filter = 0
mouse_default_cursor_shape = 0
size_flags_horizontal = 1
size_flags_vertical = 1
toggle_mode = false
enabled_focus_mode = 2
shortcut = null
group = null
text = "Reset Level"
flat = false
align = 1

[node name="ExitButton" type="Button" parent="GUI/PauseMenu/VBoxContainer" index="3"]

anchor_left = 0.0
anchor_top = 0.0
anchor_right = 0.0
anchor_bottom = 0.0
margin_top = 84.0
margin_right = 284.0
margin_bottom = 106.0
rect_pivot_offset = Vector2( 0, 0 )
rect_clip_content = false
focus_mode = 2
mouse_filter = 0
mouse_default_cursor_shape = 0
size_flags_horizontal = 1
size_flags_vertical = 1
toggle_mode = false
enabled_focus_mode = 2
shortcut = null
group = null
text = "Exit to Main Menu"
flat = false
align = 1

[node name="GameOver" type="Panel" parent="GUI" index="1"]

pause_mode = 2
visible = false
anchor_left = 0.0
anchor_top = 0.0
anchor_right = 0.0
anchor_bottom = 0.0
margin_left = 449.0
margin_top = 261.0
margin_right = 644.0
margin_bottom = 329.0
rect_pivot_offset = Vector2( 0, 0 )
rect_clip_content = false
mouse_filter = 0
mouse_default_cursor_shape = 0
size_flags_horizontal = 1
size_flags_vertical = 1
theme = ExtResource( 11 )
script = ExtResource( 13 )
_sections_unfolded = [ "Pause", "Theme" ]
__meta__ = {
"_edit_group_": true
}

[node name="VBoxContainer" type="VBoxContainer" parent="GUI/GameOver" index="0"]

anchor_left = 0.5
anchor_top = 0.5
anchor_right = 0.5
anchor_bottom = 0.5
margin_left = -80.0
margin_top = -23.0
margin_right = 80.0
margin_bottom = 23.0
rect_pivot_offset = Vector2( 0, 0 )
rect_clip_content = false
mouse_filter = 1
mouse_default_cursor_shape = 0
size_flags_horizontal = 1
size_flags_vertical = 1
custom_constants/separation = 8
alignment = 0
_sections_unfolded = [ "Anchor", "custom_constants" ]

[node name="Label" type="Label" parent="GUI/GameOver/VBoxContainer" index="0"]

anchor_left = 0.0
anchor_top = 0.0
anchor_right = 0.0
anchor_bottom = 0.0
margin_right = 160.0
margin_bottom = 16.0
rect_pivot_offset = Vector2( 0, 0 )
rect_clip_content = false
mouse_filter = 2
mouse_default_cursor_shape = 0
size_flags_horizontal = 1
size_flags_vertical = 4
text = "GAME OVER!"
align = 1
valign = 1
percent_visible = 1.0
lines_skipped = 0
max_lines_visible = -1

[node name="RetryButton" type="Button" parent="GUI/GameOver/VBoxContainer" index="1"]

anchor_left = 0.0
anchor_top = 0.0
anchor_right = 0.0
anchor_bottom = 0.0
margin_top = 24.0
margin_right = 160.0
margin_bottom = 46.0
rect_pivot_offset = Vector2( 0, 0 )
rect_clip_content = false
focus_mode = 2
mouse_filter = 0
mouse_default_cursor_shape = 0
size_flags_horizontal = 1
size_flags_vertical = 1
toggle_mode = false
enabled_focus_mode = 2
shortcut = null
group = null
text = "Retry"
flat = false
align = 1

[node name="HealthBar" type="HBoxContainer" parent="GUI" index="2"]

anchor_left = 0.0
anchor_top = 0.0
anchor_right = 0.0
anchor_bottom = 0.0
margin_left = 14.0
margin_top = 11.0
margin_right = 290.0
margin_bottom = 51.0
rect_pivot_offset = Vector2( 0, 0 )
rect_clip_content = false
mouse_filter = 1
mouse_default_cursor_shape = 0
size_flags_horizontal = 1
size_flags_vertical = 1
theme = ExtResource( 11 )
alignment = 0
script = ExtResource( 14 )
_sections_unfolded = [ "Theme" ]
__meta__ = {
"_edit_group_": true
}

[node name="Label" type="Label" parent="GUI/HealthBar" index="0"]

anchor_left = 0.0
anchor_top = 0.0
anchor_right = 0.0
anchor_bottom = 0.0
margin_top = 12.0
margin_right = 48.0
margin_bottom = 28.0
rect_pivot_offset = Vector2( 0, 0 )
rect_clip_content = false
mouse_filter = 2
mouse_default_cursor_shape = 0
size_flags_horizontal = 1
size_flags_vertical = 4
text = "HP:"
percent_visible = 1.0
lines_skipped = 0
max_lines_visible = -1

[node name="TextureProgress" type="TextureProgress" parent="GUI/HealthBar" index="1"]

anchor_left = 0.0
anchor_top = 0.0
anchor_right = 0.0
anchor_bottom = 0.0
margin_left = 52.0
margin_right = 212.0
margin_bottom = 40.0
rect_pivot_offset = Vector2( 0, 0 )
rect_clip_content = false
mouse_filter = 1
mouse_default_cursor_shape = 0
size_flags_horizontal = 1
size_flags_vertical = 1
min_value = 0.0
max_value = 100.0
step = 20.0
page = 0.0
value = 60.0
exp_edit = false
rounded = false
texture_under = null
texture_over = null
texture_progress = ExtResource( 15 )
radial_fill_degrees = 360.0
radial_center_offset = Vector2( 0, 0 )
nine_patch_stretch = false
_sections_unfolded = [ "Textures" ]

[node name="Sprite" type="Sprite" parent="GUI/HealthBar" index="2"]

visible = false
position = Vector2( 72.0371, 71.1942 )
scale = Vector2( 3, 3 )
texture = ExtResource( 16 )
_sections_unfolded = [ "Transform" ]

[node name="Timer" type="Timer" parent="GUI/HealthBar" index="3"]

process_mode = 1
wait_time = 3.0
one_shot = false
autostart = false

[node name="CanvasLayer - BACK" type="CanvasLayer" parent="." index="9"]

editor/display_folded = true
layer = -1
offset = Vector2( 0, 0 )
rotation = 0.0
scale = Vector2( 1, 1 )
transform = Transform2D( 1, 0, 0, 1, 0, 0 )

[node name="Sprite" type="Sprite" parent="CanvasLayer - BACK" index="0"]

position = Vector2( 1023.88, -0.499184 )
rotation = 1.5708
scale = Vector2( 0.293103, 1026.16 )
z_index = -3
texture = SubResource( 5 )
centered = false
_sections_unfolded = [ "Offset", "Transform" ]

[node name="Background" type="Node2D" parent="." index="10"]

z_index = -1
script = ExtResource( 17 )
_sections_unfolded = [ "Material", "Z Index" ]
__meta__ = {
"_edit_lock_": true
}

[node name="Sign" type="Sprite" parent="Background" index="0"]

position = Vector2( -1896, -16 )
texture = ExtResource( 18 )

[node name="Bridge" type="StaticBody2D" parent="Background" index="1"]

editor/display_folded = true
position = Vector2( -1634, -14 )
input_pickable = false
collision_layer = 32
collision_mask = 1
constant_linear_velocity = Vector2( 0, 0 )
constant_angular_velocity = 0.0
friction = 1.0
bounce = 0.0
_sections_unfolded = [ "Collision" ]

[node name="Sprite" type="Sprite" parent="Background/Bridge" index="0"]

position = Vector2( 17.0458, -17.7501 )
texture = ExtResource( 19 )

[node name="CollisionShape2D" type="CollisionShape2D" parent="Background/Bridge" index="1"]

position = Vector2( 38.0735, 13.3536 )
shape = SubResource( 6 )
one_way_collision = true

[node name="CollisionShape2D2" type="CollisionShape2D" parent="Background/Bridge" index="2"]

position = Vector2( 29.9365, 5.34072 )
shape = SubResource( 6 )
one_way_collision = true

[node name="CollisionShape2D3" type="CollisionShape2D" parent="Background/Bridge" index="3"]

position = Vector2( -0.811707, -21.839 )
shape = SubResource( 6 )
one_way_collision = true

[node name="CollisionShape2D4" type="CollisionShape2D" parent="Background/Bridge" index="4"]

position = Vector2( -8.87482, -29.8034 )
shape = SubResource( 6 )
one_way_collision = true

[node name="CollisionShape2D5" type="CollisionShape2D" parent="Background/Bridge" index="5"]

position = Vector2( 13.6588, -37.2291 )
shape = SubResource( 7 )
one_way_collision = true

[node name="water" type="Node2D" parent="Background" index="2"]

editor/display_folded = true
position = Vector2( -864, 0 )
script = ExtResource( 20 )

[node name="Water" type="AnimatedSprite" parent="Background/water" index="0"]

modulate = Color( 1, 1, 1, 0.574588 )
position = Vector2( -896, 8 )
scale = Vector2( 1, 0.5 )
z_index = 1
frames = SubResource( 8 )
animation = "nieful"
playing = true
_sections_unfolded = [ "Transform", "Visibility", "Z Index" ]

[node name="Water2" type="AnimatedSprite" parent="Background/water" index="1"]

modulate = Color( 1, 1, 1, 0.574588 )
position = Vector2( -864, 8 )
scale = Vector2( 1, 0.5 )
z_index = 1
frames = SubResource( 8 )
animation = "nieful"
playing = true
_sections_unfolded = [ "Transform", "Visibility", "Z Index" ]

[node name="Water3" type="AnimatedSprite" parent="Background/water" index="2"]

modulate = Color( 1, 1, 1, 0.574588 )
position = Vector2( -832, 8 )
scale = Vector2( 1, 0.5 )
z_index = 1
frames = SubResource( 8 )
animation = "nieful"
playing = true
_sections_unfolded = [ "Transform", "Visibility", "Z Index" ]

[node name="Water4" type="AnimatedSprite" parent="Background/water" index="3"]

modulate = Color( 1, 1, 1, 0.574588 )
position = Vector2( -800, 8 )
scale = Vector2( 1, 0.5 )
z_index = 1
frames = SubResource( 8 )
animation = "nieful"
playing = true
_sections_unfolded = [ "Transform", "Visibility", "Z Index" ]

[node name="Water5" type="AnimatedSprite" parent="Background/water" index="4"]

modulate = Color( 1, 1, 1, 0.574588 )
position = Vector2( -768, 8 )
scale = Vector2( 1, 0.5 )
z_index = 1
frames = SubResource( 8 )
animation = "nieful"
playing = true
_sections_unfolded = [ "Transform", "Visibility", "Z Index" ]

[node name="Water12" type="AnimatedSprite" parent="Background/water" index="5"]

modulate = Color( 1, 1, 1, 0.574588 )
position = Vector2( -544, 8 )
scale = Vector2( 1, 0.5 )
z_index = 1
frames = SubResource( 8 )
animation = "nieful"
playing = true
_sections_unfolded = [ "Transform", "Visibility", "Z Index" ]

[node name="Water13" type="AnimatedSprite" parent="Background/water" index="6"]

modulate = Color( 1, 1, 1, 0.574588 )
position = Vector2( -512, 8 )
scale = Vector2( 1, 0.5 )
z_index = 1
frames = SubResource( 8 )
animation = "nieful"
frame = 2
playing = true
_sections_unfolded = [ "Transform", "Visibility", "Z Index" ]

[node name="Water14" type="AnimatedSprite" parent="Background/water" index="7"]

modulate = Color( 1, 1, 1, 0.574588 )
position = Vector2( -480, 8 )
scale = Vector2( 1, 0.5 )
z_index = 1
frames = SubResource( 8 )
animation = "nieful"
frame = 2
playing = true
_sections_unfolded = [ "Transform", "Visibility", "Z Index" ]

[node name="Water6" type="AnimatedSprite" parent="Background/water" index="8"]

modulate = Color( 1, 1, 1, 0.574588 )
position = Vector2( -736, 8 )
scale = Vector2( 1, 0.5 )
z_index = 1
frames = SubResource( 8 )
animation = "nieful"
playing = true
_sections_unfolded = [ "Transform", "Visibility", "Z Index" ]

[node name="Water7" type="AnimatedSprite" parent="Background/water" index="9"]

modulate = Color( 1, 1, 1, 0.574588 )
position = Vector2( -704, 8 )
scale = Vector2( 1, 0.5 )
z_index = 1
frames = SubResource( 8 )
animation = "nieful"
playing = true
_sections_unfolded = [ "Transform", "Visibility", "Z Index" ]

[node name="Water8" type="AnimatedSprite" parent="Background/water" index="10"]

modulate = Color( 1, 1, 1, 0.574588 )
position = Vector2( -672, 8 )
scale = Vector2( 1, 0.5 )
z_index = 1
frames = SubResource( 8 )
animation = "nieful"
playing = true
_sections_unfolded = [ "Transform", "Visibility", "Z Index" ]

[node name="Water9" type="AnimatedSprite" parent="Background/water" index="11"]

modulate = Color( 1, 1, 1, 0.574588 )
position = Vector2( -640, 8 )
scale = Vector2( 1, 0.5 )
z_index = 1
frames = SubResource( 8 )
animation = "nieful"
frame = 2
playing = true
_sections_unfolded = [ "Transform", "Visibility", "Z Index" ]

[node name="Water10" type="AnimatedSprite" parent="Background/water" index="12"]

modulate = Color( 1, 1, 1, 0.574588 )
position = Vector2( -608, 8 )
scale = Vector2( 1, 0.5 )
z_index = 1
frames = SubResource( 8 )
animation = "nieful"
frame = 2
playing = true
_sections_unfolded = [ "Transform", "Visibility", "Z Index" ]

[node name="Water11" type="AnimatedSprite" parent="Background/water" index="13"]

modulate = Color( 1, 1, 1, 0.574588 )
position = Vector2( -576, 8 )
scale = Vector2( 1, 0.5 )
z_index = 1
frames = SubResource( 8 )
animation = "nieful"
frame = 1
playing = true
_sections_unfolded = [ "Transform", "Visibility", "Z Index" ]

[node name="Water_full" type="AnimatedSprite" parent="Background/water" index="14"]

modulate = Color( 1, 1, 1, 0.574588 )
position = Vector2( -704, 24 )
scale = Vector2( 1, 0.5 )
z_index = 1
frames = SubResource( 8 )
animation = "ful"
playing = true
_sections_unfolded = [ "Transform", "Visibility", "Z Index" ]

[node name="Water_full2" type="AnimatedSprite" parent="Background/water" index="15"]

modulate = Color( 1, 1, 1, 0.574588 )
position = Vector2( -672, 24 )
scale = Vector2( 1, 0.5 )
z_index = 1
frames = SubResource( 8 )
animation = "ful"
frame = 2
playing = true
_sections_unfolded = [ "Transform", "Visibility", "Z Index" ]

[node name="Water_full3" type="AnimatedSprite" parent="Background/water" index="16"]

modulate = Color( 1, 1, 1, 0.574588 )
position = Vector2( -640, 24 )
scale = Vector2( 1, 0.5 )
z_index = 1
frames = SubResource( 8 )
animation = "ful"
frame = 2
playing = true
_sections_unfolded = [ "Transform", "Visibility", "Z Index" ]

[node name="Water_full4" type="AnimatedSprite" parent="Background/water" index="17"]

modulate = Color( 1, 1, 1, 0.574588 )
position = Vector2( -608, 24 )
scale = Vector2( 1, 0.5 )
z_index = 1
frames = SubResource( 8 )
animation = "ful"
frame = 1
playing = true
_sections_unfolded = [ "Transform", "Visibility", "Z Index" ]

[node name="AudioStreamPlayer" type="AudioStreamPlayer" parent="Background/water" index="18"]

stream = ExtResource( 27 )
volume_db = 0.0
pitch_scale = 1.0
autoplay = false
mix_target = 0
bus = "Master"

[node name="Area2D" type="Area2D" parent="Background/water" index="19"]

input_pickable = true
gravity_vec = Vector2( 0, 1 )
gravity = 98.0
linear_damp = 0.1
angular_damp = 1.0
audio_bus_override = false
audio_bus_name = "Master"

[node name="CollisionShape2D" type="CollisionShape2D" parent="Background/water/Area2D" index="0"]

position = Vector2( -688, 8 )
scale = Vector2( 1.13317, 1 )
shape = SubResource( 9 )

[node name="Gate" type="Sprite" parent="Background" index="3"]

position = Vector2( -1098, -48 )
texture = ExtResource( 28 )

[node name="Szopa" type="StaticBody2D" parent="Background" index="4"]

editor/display_folded = true
input_pickable = false
collision_layer = 32
collision_mask = 1
constant_linear_velocity = Vector2( 0, 0 )
constant_angular_velocity = 0.0
friction = 1.0
bounce = 0.0
_sections_unfolded = [ "Collision" ]

[node name="CollisionShape2D" type="CollisionShape2D" parent="Background/Szopa" index="0"]

position = Vector2( -776.671, -3.85011 )
z_index = 1
shape = SubResource( 10 )
one_way_collision = true
_sections_unfolded = [ "Z Index" ]

[node name="CollisionShape2D2" type="CollisionShape2D" parent="Background/Szopa" index="1"]

position = Vector2( -777.105, -35.6931 )
z_index = 1
shape = SubResource( 10 )
one_way_collision = true
_sections_unfolded = [ "Z Index" ]

[node name="Szopa" type="Sprite" parent="Background/Szopa" index="2"]

position = Vector2( -776, -32 )
texture = ExtResource( 29 )

[node name="Area_szopa" type="Area2D" parent="Background/Szopa/Szopa" index="0"]

position = Vector2( 776, 32 )
input_pickable = true
gravity_vec = Vector2( 0, 1 )
gravity = 98.0
linear_damp = 0.1
angular_damp = 1.0
audio_bus_override = false
audio_bus_name = "Master"

[node name="CollisionShape2D" type="CollisionShape2D" parent="Background/Szopa/Szopa/Area_szopa" index="0"]

position = Vector2( -779.335, -16.5083 )
shape = SubResource( 11 )

[node name="Area_obok_szopy" type="Area2D" parent="Background/Szopa" index="3"]

input_pickable = true
gravity_vec = Vector2( 0, 1 )
gravity = 98.0
linear_damp = 0.1
angular_damp = 1.0
audio_bus_override = false
audio_bus_name = "Master"

[node name="CollisionShape2D" type="CollisionShape2D" parent="Background/Szopa/Area_obok_szopy" index="0"]

position = Vector2( -744.739, -53.8475 )
shape = SubResource( 12 )

[node name="Terrorist_house" type="StaticBody2D" parent="Background" index="5"]

input_pickable = false
collision_layer = 32
collision_mask = 1
constant_linear_velocity = Vector2( 0, 0 )
constant_angular_velocity = 0.0
friction = 1.0
bounce = 0.0
_sections_unfolded = [ "Collision" ]

[node name="Sprite" type="Sprite" parent="Background/Terrorist_house" index="0"]

position = Vector2( -212, -28.488 )
scale = Vector2( 1, 0.890251 )
texture = ExtResource( 30 )

[node name="CollisionShape2D" type="CollisionShape2D" parent="Background/Terrorist_house" index="1"]

position = Vector2( -211.774, -50.3516 )
z_index = 1
shape = SubResource( 13 )
one_way_collision = true
_sections_unfolded = [ "Z Index" ]

[node name="Sprite2" type="Sprite" parent="Background/Terrorist_house" index="2"]

position = Vector2( -151.122, -36.3515 )
scale = Vector2( 0.75, 0.75 )
texture = ExtResource( 31 )
_sections_unfolded = [ "Transform" ]

[node name="CollisionShape2D2" type="CollisionShape2D" parent="Background/Terrorist_house" index="3"]

position = Vector2( -153.371, -21.8006 )
shape = SubResource( 14 )
one_way_collision = true

[node name="Area_terrorist_house" type="Area2D" parent="Background/Terrorist_house" index="4"]

input_pickable = true
gravity_vec = Vector2( 0, 1 )
gravity = 98.0
linear_damp = 0.1
angular_damp = 1.0
audio_bus_override = false
audio_bus_name = "Master"

[node name="CollisionShape2D" type="CollisionShape2D" parent="Background/Terrorist_house/Area_terrorist_house" index="0"]

position = Vector2( -504.678, -42.2752 )
shape = SubResource( 15 )

[node name="Bank" type="StaticBody2D" parent="Background" index="6"]

editor/display_folded = true
input_pickable = false
collision_layer = 32
collision_mask = 1
constant_linear_velocity = Vector2( 0, 0 )
constant_angular_velocity = 0.0
friction = 1.0
bounce = 0.0
_sections_unfolded = [ "Collision" ]

[node name="Sprite" type="Sprite" parent="Background/Bank" index="0"]

position = Vector2( -50.4198, -48.529 )
z_index = -1
texture = ExtResource( 32 )
_sections_unfolded = [ "Z Index" ]

[node name="CollisionShape2D" type="CollisionShape2D" parent="Background/Bank" index="1"]

position = Vector2( -49.7531, -51.5882 )
shape = SubResource( 16 )
one_way_collision = true

[node name="Area_bank" type="Area2D" parent="Background/Bank" index="2"]

input_pickable = true
gravity_vec = Vector2( 0, 1 )
gravity = 98.0
linear_damp = 0.1
angular_damp = 1.0
audio_bus_override = false
audio_bus_name = "Master"

[node name="CollisionShape2D" type="CollisionShape2D" parent="Background/Bank/Area_bank" index="0"]

position = Vector2( -105.784, -97.0035 )
shape = SubResource( 17 )

[node name="Double_terrorist" type="StaticBody2D" parent="Background" index="7"]

editor/display_folded = true
input_pickable = false
collision_layer = 32
collision_mask = 1
constant_linear_velocity = Vector2( 0, 0 )
constant_angular_velocity = 0.0
friction = 1.0
bounce = 0.0
_sections_unfolded = [ "Collision" ]

[node name="CollisionShape2D" type="CollisionShape2D" parent="Background/Double_terrorist" index="0"]

position = Vector2( 95.3126, -78.8703 )
z_index = 1
shape = SubResource( 18 )
_sections_unfolded = [ "Transform", "Z Index" ]

[node name="Sprite" type="Sprite" parent="Background/Double_terrorist" index="1"]

position = Vector2( 96, -42 )
scale = Vector2( 1.3, 1.3 )
texture = ExtResource( 33 )
_sections_unfolded = [ "Transform" ]

[node name="bottle" type="Sprite" parent="Background" index="8"]

position = Vector2( 194, -8 )
scale = Vector2( 0.5, 0.5 )
texture = ExtResource( 34 )
_sections_unfolded = [ "Transform" ]

[node name="bottle2" type="Sprite" parent="Background" index="9"]

position = Vector2( 215.801, -3.55013 )
rotation = 1.5708
scale = Vector2( 0.5, 0.5 )
texture = ExtResource( 35 )
_sections_unfolded = [ "Transform" ]

[node name="Motel" type="StaticBody2D" parent="Background" index="10"]

editor/display_folded = true
position = Vector2( 53.5192, 0 )
input_pickable = false
collision_layer = 32
collision_mask = 1
constant_linear_velocity = Vector2( 0, 0 )
constant_angular_velocity = 0.0
friction = 1.0
bounce = 0.0
_sections_unfolded = [ "Collision" ]

[node name="CollisionShape2D" type="CollisionShape2D" parent="Background/Motel" index="0"]

position = Vector2( 374, -6 )
z_index = 1
shape = SubResource( 19 )
one_way_collision = true
_sections_unfolded = [ "Transform", "Z Index" ]

[node name="CollisionShape2D6" type="CollisionShape2D" parent="Background/Motel" index="1"]

position = Vector2( 374, -77.3896 )
z_index = 1
shape = SubResource( 19 )
one_way_collision = true
_sections_unfolded = [ "Transform", "Z Index" ]

[node name="Sprite" type="Sprite" parent="Background/Motel" index="2"]

position = Vector2( 374, -72 )
scale = Vector2( 1.5, 1.5 )
texture = ExtResource( 36 )
_sections_unfolded = [ "Transform" ]

[node name="Area_motel" type="Area2D" parent="Background/Motel" index="3"]

input_pickable = true
gravity_vec = Vector2( 0, 1 )
gravity = 98.0
linear_damp = 0.1
angular_damp = 1.0
audio_bus_override = false
audio_bus_name = "Master"

[node name="CollisionShape2D" type="CollisionShape2D" parent="Background/Motel/Area_motel" index="0"]

position = Vector2( 215.88, -9.25923 )
shape = SubResource( 20 )

[node name="CollisionShape2D2" type="CollisionShape2D" parent="Background/Motel" index="4"]

position = Vector2( 318.846, -23.4228 )
shape = SubResource( 21 )
one_way_collision = true

[node name="CollisionShape2D3" type="CollisionShape2D" parent="Background/Motel" index="5"]

position = Vector2( 318.347, -53.3177 )
shape = SubResource( 21 )
one_way_collision = true

[node name="CollisionShape2D4" type="CollisionShape2D" parent="Background/Motel" index="6"]

position = Vector2( 429.955, -53.4837 )
shape = SubResource( 21 )
one_way_collision = true

[node name="CollisionShape2D5" type="CollisionShape2D" parent="Background/Motel" index="7"]

position = Vector2( 429.623, -23.0906 )
shape = SubResource( 21 )
one_way_collision = true

[node name="Area_gunslinga" type="Area2D" parent="Background" index="11"]

editor/display_folded = true
input_pickable = true
gravity_vec = Vector2( 0, 1 )
gravity = 98.0
linear_damp = 0.1
angular_damp = 1.0
audio_bus_override = false
audio_bus_name = "Master"

[node name="CollisionShape2D" type="CollisionShape2D" parent="Background/Area_gunslinga" index="0"]

position = Vector2( 907.801, -75.6501 )
shape = SubResource( 22 )

[node name="Karawan" type="StaticBody2D" parent="Background" index="12"]

editor/display_folded = true
position = Vector2( 1442, -32 )
input_pickable = false
collision_layer = 32
collision_mask = 1
constant_linear_velocity = Vector2( 0, 0 )
constant_angular_velocity = 0.0
friction = 1.0
bounce = 0.0
_sections_unfolded = [ "Collision", "Material", "Transform", "Z Index" ]

[node name="Sprite2" type="Sprite" parent="Background/Karawan" index="0"]

position = Vector2( -112, 16 )
texture = ExtResource( 37 )

[node name="Sprite3" type="Sprite" parent="Background/Karawan" index="1"]

position = Vector2( -94, 16 )
texture = ExtResource( 37 )

[node name="Sprite4" type="Sprite" parent="Background/Karawan" index="2"]

position = Vector2( -76, 16 )
texture = ExtResource( 37 )

[node name="Sprite5" type="Sprite" parent="Background/Karawan" index="3"]

position = Vector2( -130, 16 )
texture = ExtResource( 37 )

[node name="Sprite6" type="Sprite" parent="Background/Karawan" index="4"]

position = Vector2( -76, -4 )
texture = ExtResource( 37 )

[node name="Sprite" type="Sprite" parent="Background/Karawan" index="5"]

position = Vector2( -6, -12 )
scale = Vector2( 1.5, 1.5 )
texture = ExtResource( 38 )
_sections_unfolded = [ "Transform" ]

[node name="CollisionShape2D" type="CollisionShape2D" parent="Background/Karawan" index="6"]

position = Vector2( -4, -28 )
shape = SubResource( 23 )
one_way_collision = true

[node name="Area_karawan" type="Area2D" parent="Background/Karawan" index="7"]

input_pickable = true
gravity_vec = Vector2( 0, 1 )
gravity = 98.0
linear_damp = 0.1
angular_damp = 1.0
audio_bus_override = false
audio_bus_name = "Master"

[node name="CollisionShape2D" type="CollisionShape2D" parent="Background/Karawan/Area_karawan" index="0"]

position = Vector2( -228, -50 )
shape = SubResource( 24 )

[node name="CollisionShape2D2" type="CollisionShape2D" parent="Background/Karawan" index="8"]

position = Vector2( -101.591, 14 )
scale = Vector2( 1, 0.144693 )
shape = SubResource( 25 )
one_way_collision = true

[node name="CollisionShape2D3" type="CollisionShape2D" parent="Background/Karawan" index="9"]

position = Vector2( -74.184, -6.17356 )
shape = SubResource( 26 )
one_way_collision = true

[node name="Terrorist_gunslinga" type="StaticBody2D" parent="Background" index="13"]

editor/display_folded = true
position = Vector2( 1716, -62 )
input_pickable = false
collision_layer = 32
collision_mask = 1
constant_linear_velocity = Vector2( 0, 0 )
constant_angular_velocity = 0.0
friction = 1.0
bounce = 0.0
_sections_unfolded = [ "Collision" ]

[node name="CollisionShape2D" type="CollisionShape2D" parent="Background/Terrorist_gunslinga" index="0"]

position = Vector2( 47.5576, -7.60262 )
z_index = 1
shape = SubResource( 27 )
one_way_collision = true
_sections_unfolded = [ "Transform", "Z Index" ]

[node name="CollisionShape2D2" type="CollisionShape2D" parent="Background/Terrorist_gunslinga" index="1"]

position = Vector2( -36.4805, -15.2424 )
z_index = 1
shape = SubResource( 27 )
one_way_collision = true
_sections_unfolded = [ "Transform", "Z Index" ]

[node name="Sprite" type="Sprite" parent="Background/Terrorist_gunslinga" index="2"]

texture = ExtResource( 39 )

[node name="Area_gunslinga_terrorist" type="Area2D" parent="Background/Terrorist_gunslinga" index="3"]

input_pickable = true
gravity_vec = Vector2( 0, 1 )
gravity = 98.0
linear_damp = 0.1
angular_damp = 1.0
audio_bus_override = false
audio_bus_name = "Master"

[node name="CollisionShape2D" type="CollisionShape2D" parent="Background/Terrorist_gunslinga/Area_gunslinga_terrorist" index="0"]

position = Vector2( -117.336, 21.6363 )
shape = SubResource( 28 )

[node name="CollisionShape2D3" type="CollisionShape2D" parent="Background/Terrorist_gunslinga" index="4"]

position = Vector2( -28.4487, 40 )
shape = SubResource( 29 )
one_way_collision = true

[node name="CollisionShape2D4" type="CollisionShape2D" parent="Background/Terrorist_gunslinga" index="5"]

position = Vector2( 4, 19.948 )
z_index = 1
shape = SubResource( 30 )
one_way_collision = true
_sections_unfolded = [ "Z Index" ]

[node name="Runner_gunslinga" type="StaticBody2D" parent="Background" index="14"]

editor/display_folded = true
position = Vector2( 122, 0 )
input_pickable = false
collision_layer = 32
collision_mask = 1
constant_linear_velocity = Vector2( 0, 0 )
constant_angular_velocity = 0.0
friction = 1.0
bounce = 0.0
_sections_unfolded = [ "Collision" ]

[node name="Sprite" type="Sprite" parent="Background/Runner_gunslinga" index="0"]

position = Vector2( 1822, -32 )
texture = ExtResource( 40 )

[node name="CollisionShape2D" type="CollisionShape2D" parent="Background/Runner_gunslinga" index="1"]

position = Vector2( 1822, -60 )
shape = SubResource( 31 )
one_way_collision = true

[node name="Area_runner_gunslinga" type="Area2D" parent="Background/Runner_gunslinga" index="2"]

position = Vector2( -52.4758, -46.0456 )
input_pickable = true
gravity_vec = Vector2( 0, 1 )
gravity = 98.0
linear_damp = 0.1
angular_damp = 1.0
audio_bus_override = false
audio_bus_name = "Master"

[node name="CollisionShape2D" type="CollisionShape2D" parent="Background/Runner_gunslinga/Area_runner_gunslinga" index="0"]

position = Vector2( 1728, -50 )
shape = SubResource( 32 )

[node name="Saloon" type="StaticBody2D" parent="Background" index="15" groups=[
"Interactive_env",
]]

position = Vector2( 2142, -18 )
input_pickable = false
collision_layer = 32
collision_mask = 1
constant_linear_velocity = Vector2( 0, 0 )
constant_angular_velocity = 0.0
friction = 1.0
bounce = 0.0
_sections_unfolded = [ "Collision", "Visibility" ]

[node name="Saloon" type="Sprite" parent="Background/Saloon" index="0"]

position = Vector2( 106.971, -30.4185 )
scale = Vector2( 1.5, 1.5 )
texture = ExtResource( 41 )
_sections_unfolded = [ "Animation", "Material", "Offset", "Transform", "Visibility" ]

[node name="CollisionShape2D" type="CollisionShape2D" parent="Background/Saloon" index="1"]

position = Vector2( 107.188, -55.2175 )
scale = Vector2( 7.20633, 1 )
shape = SubResource( 33 )
one_way_collision = true

[node name="CollisionShape2D2" type="CollisionShape2D" parent="Background/Saloon" index="2"]

position = Vector2( 107.596, 3.30367 )
scale = Vector2( 7.20633, 1 )
shape = SubResource( 33 )
one_way_collision = true

[node name="Area_saloon" type="Area2D" parent="Background/Saloon" index="3"]

input_pickable = true
gravity_vec = Vector2( 0, 1 )
gravity = 98.0
linear_damp = 0.1
angular_damp = 1.0
audio_bus_override = false
audio_bus_name = "Master"

[node name="CollisionShape2D" type="CollisionShape2D" parent="Background/Saloon/Area_saloon" index="0"]

position = Vector2( -50, -44 )
shape = SubResource( 34 )

[node name="CollisionShape2D3" type="CollisionShape2D" parent="Background/Saloon" index="4"]

position = Vector2( 106, -22 )
shape = SubResource( 35 )
one_way_collision = true

[node name="Brothel" type="Area2D" parent="Background" index="16"]

input_pickable = true
gravity_vec = Vector2( 0, 1 )
gravity = 98.0
linear_damp = 0.1
angular_damp = 1.0
audio_bus_override = false
audio_bus_name = "Master"

[node name="Sprite" type="Sprite" parent="Background/Brothel" index="0"]

position = Vector2( 2632, -72 )
texture = ExtResource( 42 )

[node name="CollisionShape2D" type="CollisionShape2D" parent="Background/Brothel" index="1"]

position = Vector2( 2628, -16 )
shape = SubResource( 36 )

[connection signal="powerup" from="." to="Protag" method="_on_world_powerup"]

[connection signal="powerup" from="." to="GUI/HealthBar" method="_on_world_powerup"]

[connection signal="death" from="Protag" to="GUI/PauseMenu" method="_on_Protag_death"]

[connection signal="death" from="Protag" to="GUI/GameOver" method="_on_Protag_death"]

[connection signal="health_change" from="Protag" to="GUI/HealthBar" method="_on_Protag_health_change"]

[connection signal="init_powerup" from="Protag" to="." method="_on_Protag_init_powerup"]

[connection signal="body_entered" from="StaticBody2D/Heal" to="StaticBody2D" method="_on_Heal_body_entered"]

[connection signal="restart" from="GUI/PauseMenu" to="." method="_on_PauseMenu_restart"]

[connection signal="button_down" from="GUI/PauseMenu/VBoxContainer/ContinueButton" to="GUI/PauseMenu" method="_on_ContinueButton_button_down"]

[connection signal="button_down" from="GUI/PauseMenu/VBoxContainer/ResetButton" to="GUI/PauseMenu" method="_on_ResetButton_button_down"]

[connection signal="button_down" from="GUI/PauseMenu/VBoxContainer/ExitButton" to="GUI/PauseMenu" method="_on_ExitButton_button_down"]

[connection signal="retry" from="GUI/GameOver" to="GUI/PauseMenu" method="_on_GameOver_retry"]

[connection signal="button_down" from="GUI/GameOver/VBoxContainer/RetryButton" to="GUI/GameOver" method="_on_RetryButton_button_down"]

[connection signal="timeout" from="GUI/HealthBar/Timer" to="GUI/HealthBar" method="_on_Timer_timeout"]

[connection signal="holokaust" from="Background" to="." method="_on_Background_holokaust"]

[connection signal="spawn_enemies" from="Background" to="." method="_on_Background_spawn_enemies"]

[connection signal="body_entered" from="Background/water/Area2D" to="Background/water" method="_on_Area2D_body_entered"]

[connection signal="body_entered" from="Background/Szopa/Szopa/Area_szopa" to="Background" method="_on_Area_szopa_body_entered"]

[connection signal="body_entered" from="Background/Szopa/Area_obok_szopy" to="Background" method="_on_Area_obok_szopy_body_entered"]

[connection signal="body_entered" from="Background/Terrorist_house/Area_terrorist_house" to="Background" method="_on_Area_terrorist_house_body_entered"]

[connection signal="body_entered" from="Background/Bank/Area_bank" to="Background" method="_on_Area_bank_body_entered"]

[connection signal="body_entered" from="Background/Motel/Area_motel" to="Background" method="_on_Area_motel_body_entered"]

[connection signal="body_entered" from="Background/Area_gunslinga" to="Background" method="_on_Area_gunslinga_body_entered"]

[connection signal="body_entered" from="Background/Karawan/Area_karawan" to="Background" method="_on_Area_karawan_body_entered"]

[connection signal="body_entered" from="Background/Terrorist_gunslinga/Area_gunslinga_terrorist" to="Background" method="_on_Area_gunslinga_terrorist_body_entered"]

[connection signal="body_entered" from="Background/Runner_gunslinga/Area_runner_gunslinga" to="Background" method="_on_Area_runner_gunslinga_body_entered"]

[connection signal="body_entered" from="Background/Saloon/Area_saloon" to="Background" method="_on_Area_saloon_body_entered"]

[connection signal="body_entered" from="Background/Brothel" to="Background" method="_on_Brothel_body_entered"]


